Descriptive Analysis of Diarrhea Epidemiology in Bojonegoro Regency in 2024
…
Jumlah kasus diare yang mendapatkan pelayanan kesehatan

Variabel pelayanan kesehatan selanjutnya diklasifikasikan berdasarkan
kelompok umur, yaitu semua umur dan Balita (anak usia di bawah lima
tahun)[2]. Data ini digunakan untuk menggambarkan kondisi epidemiologi
diare di Kabupaten Bojonegoro.

Input Data

# 1. Import Data
datadiare<- read_excel("C:/Users/asus/Downloads/data_rapih(2).xlsx", sheet = 1)
datadiare

## # A tibble: 28 × 8
##    Tahun Kecamatan  JumlahPenduduk Diseases JUMLAH TARGET PENEMUAN (SEMUA UMUR…¹
##    <dbl> <chr>               <dbl>    <dbl>                                <dbl>
##  1  2024 Balen               66973      301                                  509
##  2  2024 Baureno             82214      706                                  625
##  3  2024 Bojonegoro          86000      668                                  653
##  4  2024 Bubulan             15265      171                                  116
##  5  2024 Dander              84966      209                                  646
##  6  2024 Gayam               33425       92                                  254
##  7  2024 Gondang             25834      407                                  196
##  8  2024 Kalitidu            50748      467                                  385
##  9  2024 Kanor               60849      423                                  462
## 10  2024 Kapas               56149      562                                  427
## # ℹ 18 more rows
## # ℹ abbreviated name: ¹​`JUMLAH TARGET PENEMUAN (SEMUA UMUR)`
## # ℹ 3 more variables: `JUMLAH TARGET PENEMUAN (BALITA)` <dbl>,
## #   `DILAYANI SEMUA UMUR (JUMLAH)` <dbl>, `DILAYANI BALITA (JUMLAH)` <dbl>
…
